Subject,SUBNUM,RAER,RMER,STER
AGE002,2,0,0,1.12994
AGE003,3,1.40845,2.84091,4.04624
AGE004,4,0.6993,2.28571,0.56818
AGE005,5,2.85714,1.12994,1.70455
AGE007,7,1.40845,1.14286,4.5977
AGE008,8,5.10949,1.69492,5.61798
AGE012,12,2.14286,1.72414,1.7341
AGE013,13,0,0,1.1236
AGE014,14,1.40845,0,2.32558
AGE015,15,0,1.12994,0
AGE017,17,0.6993,0,0.55556
AGE018,18,0.6993,0.56818,0
AGE019,19,9.23077,2.46914,15.85366
AGE020,20,1.40845,1.78571,1.74419
AGE021,21,0,0,1.11732
AGE022,22,0.6993,1.69492,1.69492
AGE023,23,1.40845,1.12994,2.25989
AGE024,24,0.6993,1.11732,0.56818
AGE026,26,2.85714,1.70455,2.25989
AGE027,27,1.40845,1.72414,6.25
AGE028,28,1.40845,1.14286,1.13636
AGE030,30,1.40845,0,0.56818
AGE032,32,5.97015,6.62651,13.0137
AGE033,33,1.40845,1.77515,6.97674
AGE034,34,1.40845,0,2.82486
AGE035,35,2.85714,0.57143,2.27273
AGE036,36,1.40845,0,3.42857
AGE038,38,0,0,0.55556
AGE043,43,1.40845,4.65116,12.19512
AGE046,46,2.85714,1.1236,1.12994
AGE047,47,1.3986,2.24719,1.14943
AGE050,50,0,0.55866,1.11732
AGE051,51,10,6.36943,16.02564
AGE053,53,4.34783,11.80556,28.57143
AGE058,58,3.59712,1.78571,5.11364
AGE059,59,2.85714,1.14943,2.87356
AGE061,61,5.92593,7.78443,6.06061
AGE062,62,2.85714,0.56497,2.27273
AGE063,63,5.88235,2.36686,8.23529
AGE066,66,2.85714,2.84091,1.71429
AGE067,67,1.40845,1.14286,6.43275
AGE068,68,0,0,1.11111
AGE069,69,0,1.13636,2.82486
AGE070,70,3.57143,2.31214,3.50877
AGE072,72,1.40845,2.31214,5.14286
AGE073,73,1.40845,1.13636,1.11732
AGE075,75,4.34783,2.99401,7.22892
AGE077,77,0,3.44828,2.85714
AGE081,81,8.27068,7.28477,20
AGE083,83,0,1.12994,1.70455
AGE084,84,1.40845,0,0
AGE085,85,3.59712,4.09357,10
AGE086,86,0,0,0.5618
AGE088,88,2.12766,1.11732,2.87356
AGE089,89,0,1.11111,1.12994
AGE090,90,1.40845,1.15607,0.56497
AGE092,92,3.59712,3.5503,2.90698
AGE093,93,0,0.5618,0
AGE094,94,2.12766,0,2.29885
AGE095,95,0,4.02299,2.27273
AGE096,96,3.59712,2.85714,3.48837
AGE097,97,2.12766,0.5618,0.55866
AGE098,98,5.10949,0.58824,2.28571
AGE100,100,0,0.5618,3.37079
AGE102,102,0.70423,2.82486,2.29885
AGE103,103,0.6993,2.89017,4.54545
AGE104,104,0,1.68539,0
AGE107,107,1.40845,2.89017,5.23256
AGE108,108,2.83688,0.56818,1.70455
AGE109,109,3.59712,4.96894,7.14286
AGE111,111,2.85714,0.60976,3.65854
AGE114,114,0.6993,0.55556,0.55866
AGE115,115,1.40845,2.29885,6.85714
AGE116,116,4.37956,3.08642,6.58683
AGE117,117,2.14286,2.28571,4
AGE118,118,0,0,1.1236
AGE119,119,0.6993,1.1236,0
AGE120,120,2.11268,1.1236,1.7341
AGE121,121,1.05263,0.5618,2.87356
AGE122,122,2.85714,0.58824,7.9096
AGE123,123,3.62319,2.92398,4.02299
AGE124,124,4.34783,3.61446,10.625
AGE127,127,0.6993,1.1236,1.68539
AGE128,128,0.6993,1.7341,6.85714
AGE129,129,1.40845,1.70455,1.68539
AGE130,130,2.85714,9.67742,20.12987
AGE131,131,1.40845,1.14286,3.91061
AGE133,133,0,1.11111,0
AGE134,134,2.8777,1.68539,0.5618
AGE135,135,5.14706,2.94118,7.69231
AGE136,136,2.12766,1.18343,5.78035
AGE138,138,2.14286,0,4.49438
AGE141,141,0,0.57143,1.13636
AGE145,145,3.59712,11.5942,14.38356
AGE146,146,3.62319,4.70588,4.67836
AGE147,147,0,0,2.29885
AGE148,148,0.6993,1.13636,2.29885
AGE149,149,0,0.56818,2.28571
AGE150,150,2.85714,0.5814,2.80899
AGE151,151,2.85714,2.85714,0.5814
AGE152,152,0,1.14286,4.5977
AGE153,153,1.42857,1.15607,5.88235
AGE155,155,1.40845,0.5618,1.7341
AGE156,156,3.59712,10.45752,16.77019
AGE158,158,2.85714,4.11765,4.11765
AGE159,159,0.6993,1.69492,2.85714
AGE160,160,1.40845,0.56497,1.66667
AGE161,161,0,0,0
AGE162,162,0,0,0
AGE163,163,0,6.79012,10.77844
AGE164,164,1.05263,0,0.55866
AGE165,165,1.40845,4.34783,14.47368
AGE166,166,2.12766,3.93258,2.87356
AGE167,167,3.62319,1.7341,4.04624
AGE168,168,3.59712,7.78443,5.4878
AGE169,169,5.14706,4.21687,9.03614
AGE170,170,1.41844,2.85714,3.44828
AGE172,172,5.10949,4.90798,7.87879
AGE175,175,5.10949,2.28571,4.04624
AGE176,176,3.59712,1.81818,11.37725
AGE177,177,2.14286,3.0303,4.06977
AGE178,178,7.75194,6.92308,19.85294
AGE179,179,2.85714,4.67836,4.5977
AGE180,180,1.40845,2.99401,4.54545
AGE181,181,2.85714,5.98802,6.66667
AGE182,182,3.57143,3.01205,9.03614
AGE183,183,4.3956,2.92398,9.09091
AGE184,184,2.54237,2.85714,1.1236
AGE185,185,3.59712,2.80899,2.85714
AGE186,186,0.6993,1.71429,1.14286
AGE187,187,10,5.6962,9.20245
AGE189,189,5.10949,6.74847,6.35838
AGE190,190,3.59712,1.71429,3.35196
AGE195,195,0.6993,0,0.56497
AGE197,197,3.59712,2.31214,4.65116
AGE198,198,4.34783,2.82486,1.1236
AGE199,199,3.59712,3.5503,9.03614
AGE201,201,0,0,3.38983
AGE202,202,2.89855,9.7561,9.81595
AGE203,203,0.6993,0.56497,2.24719
AGE205,205,5.10949,8.69565,17.19745
AGE206,206,2.8777,3.57143,4.62428
AGE207,207,5.92593,8.10811,16.77419
AGE208,208,0,0.57143,4
AGE209,209,5.07246,1.79641,8.98204
AGE210,210,3.59712,3.42857,3.40909
AGE211,211,0,0,1.11732
AGE217,217,6.71642,4.32099,15.52795
AGE218,218,0.6993,1.1236,1.67598
AGE219,219,1.40845,1.70455,0.56818
AGE220,220,2.85714,1.70455,2.27273
AGE221,221,0,1.14286,1.68539
AGE222,222,0.6993,0,1.12994
AGE225,225,2.12766,2.87356,2.28571
AGE226,226,2.85714,0.57143,0.55556
AGE227,227,2.12766,2.24719,2.24719
AGE228,228,2.85714,0,1.69492
AGE229,229,3.59712,1.74419,2.84091
AGE230,230,4.34783,1.80723,6.77966
AGE231,231,0.6993,6.58683,6.09756
AGE232,232,2.12766,1.16959,5.17241
AGE233,233,1.40845,2.94118,6.93642
AGE236,236,1.40845,1.1236,1.68539
AGE237,237,2.85714,2.90698,1.67598
AGE238,238,0,1.70455,2.24719
AGE239,239,0.6993,1.14286,2.84091
AGE241,241,3.59712,1.7341,6.50888
AGE243,243,1.40845,0,0
AGE244,244,2.12766,0.55866,3.37079
AGE245,245,1.44928,1.16279,5.38922
AGE246,246,4.34783,3.79747,13.83648
AGE247,247,0,0,0.55556
AGE248,248,0,2.82486,2.25989
AGE249,249,2.8777,2.36686,7.51445
AGE251,251,1.40845,2.28571,2.29885
AGE252,252,0,1.11732,0
AGE253,253,2.12766,1.12994,1.68539
AGE254,254,2.12766,3.08642,7.69231
AGE255,255,4.37956,7.5,11.51515
AGE256,256,1.40845,2.82486,1.70455
AGE257,257,0.6993,3.38983,2.31214
AGE258,258,2.85714,0.56818,3.37079
AGE259,259,4.34783,1.15607,2.7933
AGE260,260,1.40845,3.10559,13.83648
AGE261,261,0.71429,5.80645,14.96599
AGE264,264,0.6993,0.56497,0.5618
AGE265,265,3.59712,3.57143,11.44578
AGE266,266,4.34783,2.43902,11.46497
AGE267,267,3.59712,1.15607,5.91716
AGE268,268,1.40845,1.14286,1.11732
AGE269,269,9.16031,1.74419,5.26316
AGE270,270,0.6993,0,2.22222
AGE273,273,0.6993,0.57143,2.24719
AGE275,275,3.59712,1.13636,3.37079
AGE276,276,0,4.90798,12.80488
AGE278,278,2.85714,7.23684,11.64384
AGE279,279,5.88235,9.03226,11.04294
